{
	"type": "electromnacy:lightning_crafting",
	"group": "voltaicIronLightning",
	"energy": 10.0,
	"ingredients": [
		{
			"item": "minecraft:iron_ingot",
			"count": 1,
			"data": 0
		},
		{
			"item": "minecraft:redstone_dust",
			"count": 1,
			"data": 0
		}
	],
	"result": {
		"item": "electromancy:voltaic_iron_ingot",
		"count": 1,
		"data": 0
	}
}