{
	"parent": "electromancy:block/machine_base",
	"textures": {
		"particle": "electromancy:blocks/block_base",
		"down": "electromancy:blocks/block_base",
		"up": "electromancy:blocks/block_base",
		"east": "electromancy:blocks/block_base",
		"west": "electromancy:blocks/block_base",
		"north": "#front",
		"south": "electromancy:blocks/block_base"
	}
}