{
	"type": "electromnacy:lightning_crafting",
	"group": "voltaicIronLightning",
	"energy": 10.0,
	"ingredients": [
		{
			"item": "minecraft:iron_ingot"
		},
		{
			"item": "minecraft:redstone_dust"
		}
	],
	"result": {
		"item": "electromancy:voltaic_iron_ingot"
	}
}