{
	"type": "minecraft:crafting_shaped",
	"pattern": [
		"#"
	],
	"key": {
		"#": {
			"item": "electromancy:voltaic_iron_ingot"
		}
	},
	"result": {
		"item": "electromancy:voltaic_iron_nugget",
		"count": 9
	}
}